^\\CS-FILEBOX\STUDENTS\COKAFOR3\DESKTOP\CLIFORM\CLIFORMAPP.CPP
C:\PROGRAM FILES (X86)\MICROSOFT VISUAL STUDIO 12.0\VC\BIN\CL.EXE.CONFIG
C:\PROGRAM FILES (X86)\REFERENCE ASSEMBLIES\MICROSOFT\FRAMEWORK\.NETFRAMEWORK\V4.5\MSCORLIB.DLL
C:\PROGRAM FILES (X86)\REFERENCE ASSEMBLIES\MICROSOFT\FRAMEWORK\.NETFRAMEWORK\V4.5\SYSTEM.DATA.DLL
C:\PROGRAM FILES (X86)\REFERENCE ASSEMBLIES\MICROSOFT\FRAMEWORK\.NETFRAMEWORK\V4.5\SYSTEM.DLL
C:\PROGRAM FILES (X86)\REFERENCE ASSEMBLIES\MICROSOFT\FRAMEWORK\.NETFRAMEWORK\V4.5\SYSTEM.DRAWING.DLL
C:\PROGRAM FILES (X86)\REFERENCE ASSEMBLIES\MICROSOFT\FRAMEWORK\.NETFRAMEWORK\V4.5\SYSTEM.WINDOWS.FORMS.DLL
C:\PROGRAM FILES (X86)\REFERENCE ASSEMBLIES\MICROSOFT\FRAMEWORK\.NETFRAMEWORK\V4.5\SYSTEM.XML.DLL
\\CS-FILEBOX\STUDENTS\COKAFOR3\DESKTOP\CLIFORM\MYFORM.H
^\\CS-FILEBOX\STUDENTS\COKAFOR3\DESKTOP\CLIFORM\CONTROLLER\MYFORM.CPP
C:\PROGRAM FILES (X86)\MICROSOFT VISUAL STUDIO 12.0\VC\BIN\CL.EXE.CONFIG
C:\PROGRAM FILES (X86)\REFERENCE ASSEMBLIES\MICROSOFT\FRAMEWORK\.NETFRAMEWORK\V4.5\MSCORLIB.DLL
C:\PROGRAM FILES (X86)\REFERENCE ASSEMBLIES\MICROSOFT\FRAMEWORK\.NETFRAMEWORK\V4.5\SYSTEM.DATA.DLL
C:\PROGRAM FILES (X86)\REFERENCE ASSEMBLIES\MICROSOFT\FRAMEWORK\.NETFRAMEWORK\V4.5\SYSTEM.DLL
C:\PROGRAM FILES (X86)\REFERENCE ASSEMBLIES\MICROSOFT\FRAMEWORK\.NETFRAMEWORK\V4.5\SYSTEM.DRAWING.DLL
C:\PROGRAM FILES (X86)\REFERENCE ASSEMBLIES\MICROSOFT\FRAMEWORK\.NETFRAMEWORK\V4.5\SYSTEM.WINDOWS.FORMS.DLL
C:\PROGRAM FILES (X86)\REFERENCE ASSEMBLIES\MICROSOFT\FRAMEWORK\.NETFRAMEWORK\V4.5\SYSTEM.XML.DLL
\\CS-FILEBOX\STUDENTS\COKAFOR3\DESKTOP\CLIFORM\MYFORM.H
^\\CS-FILEBOX\STUDENTS\COKAFOR3\DESKTOP\CLIFORM\VIEW\MYFORMVIEW.CPP
C:\PROGRAM FILES (X86)\MICROSOFT VISUAL STUDIO 12.0\VC\BIN\CL.EXE.CONFIG
C:\PROGRAM FILES (X86)\REFERENCE ASSEMBLIES\MICROSOFT\FRAMEWORK\.NETFRAMEWORK\V4.5\MSCORLIB.DLL
C:\PROGRAM FILES (X86)\REFERENCE ASSEMBLIES\MICROSOFT\FRAMEWORK\.NETFRAMEWORK\V4.5\SYSTEM.DATA.DLL
C:\PROGRAM FILES (X86)\REFERENCE ASSEMBLIES\MICROSOFT\FRAMEWORK\.NETFRAMEWORK\V4.5\SYSTEM.DLL
C:\PROGRAM FILES (X86)\REFERENCE ASSEMBLIES\MICROSOFT\FRAMEWORK\.NETFRAMEWORK\V4.5\SYSTEM.DRAWING.DLL
C:\PROGRAM FILES (X86)\REFERENCE ASSEMBLIES\MICROSOFT\FRAMEWORK\.NETFRAMEWORK\V4.5\SYSTEM.WINDOWS.FORMS.DLL
C:\PROGRAM FILES (X86)\REFERENCE ASSEMBLIES\MICROSOFT\FRAMEWORK\.NETFRAMEWORK\V4.5\SYSTEM.XML.DLL
\\CS-FILEBOX\STUDENTS\COKAFOR3\DESKTOP\CLIFORM\MYFORM.H
^\\CS-FILEBOX\STUDENTS\COKAFOR3\DESKTOP\TEAMACONNECT64\CLIFORM\CLIFORMAPP.CPP
C:\PROGRAM FILES (X86)\MICROSOFT VISUAL STUDIO 12.0\VC\BIN\CL.EXE.CONFIG
C:\PROGRAM FILES (X86)\REFERENCE ASSEMBLIES\MICROSOFT\FRAMEWORK\.NETFRAMEWORK\V4.5\MSCORLIB.DLL
C:\PROGRAM FILES (X86)\REFERENCE ASSEMBLIES\MICROSOFT\FRAMEWORK\.NETFRAMEWORK\V4.5\SYSTEM.DATA.DLL
C:\PROGRAM FILES (X86)\REFERENCE ASSEMBLIES\MICROSOFT\FRAMEWORK\.NETFRAMEWORK\V4.5\SYSTEM.DLL
C:\PROGRAM FILES (X86)\REFERENCE ASSEMBLIES\MICROSOFT\FRAMEWORK\.NETFRAMEWORK\V4.5\SYSTEM.DRAWING.DLL
C:\PROGRAM FILES (X86)\REFERENCE ASSEMBLIES\MICROSOFT\FRAMEWORK\.NETFRAMEWORK\V4.5\SYSTEM.WINDOWS.FORMS.DLL
C:\PROGRAM FILES (X86)\REFERENCE ASSEMBLIES\MICROSOFT\FRAMEWORK\.NETFRAMEWORK\V4.5\SYSTEM.XML.DLL
\\CS-FILEBOX\STUDENTS\COKAFOR3\DESKTOP\TEAMACONNECT64\CLIFORM\MYFORM.H
^\\CS-FILEBOX\STUDENTS\COKAFOR3\DESKTOP\TEAMACONNECT64\CLIFORM\CONTROLLER\MYFORM.CPP
C:\PROGRAM FILES (X86)\MICROSOFT VISUAL STUDIO 12.0\VC\BIN\CL.EXE.CONFIG
C:\PROGRAM FILES (X86)\REFERENCE ASSEMBLIES\MICROSOFT\FRAMEWORK\.NETFRAMEWORK\V4.5\MSCORLIB.DLL
C:\PROGRAM FILES (X86)\REFERENCE ASSEMBLIES\MICROSOFT\FRAMEWORK\.NETFRAMEWORK\V4.5\SYSTEM.DATA.DLL
C:\PROGRAM FILES (X86)\REFERENCE ASSEMBLIES\MICROSOFT\FRAMEWORK\.NETFRAMEWORK\V4.5\SYSTEM.DLL
C:\PROGRAM FILES (X86)\REFERENCE ASSEMBLIES\MICROSOFT\FRAMEWORK\.NETFRAMEWORK\V4.5\SYSTEM.DRAWING.DLL
C:\PROGRAM FILES (X86)\REFERENCE ASSEMBLIES\MICROSOFT\FRAMEWORK\.NETFRAMEWORK\V4.5\SYSTEM.WINDOWS.FORMS.DLL
C:\PROGRAM FILES (X86)\REFERENCE ASSEMBLIES\MICROSOFT\FRAMEWORK\.NETFRAMEWORK\V4.5\SYSTEM.XML.DLL
\\CS-FILEBOX\STUDENTS\COKAFOR3\DESKTOP\TEAMACONNECT64\CLIFORM\MYFORM.H
^\\CS-FILEBOX\STUDENTS\COKAFOR3\DESKTOP\TEAMACONNECT64\CLIFORM\VIEW\MYFORMVIEW.CPP
C:\PROGRAM FILES (X86)\MICROSOFT VISUAL STUDIO 12.0\VC\BIN\CL.EXE.CONFIG
C:\PROGRAM FILES (X86)\REFERENCE ASSEMBLIES\MICROSOFT\FRAMEWORK\.NETFRAMEWORK\V4.5\MSCORLIB.DLL
C:\PROGRAM FILES (X86)\REFERENCE ASSEMBLIES\MICROSOFT\FRAMEWORK\.NETFRAMEWORK\V4.5\SYSTEM.DATA.DLL
C:\PROGRAM FILES (X86)\REFERENCE ASSEMBLIES\MICROSOFT\FRAMEWORK\.NETFRAMEWORK\V4.5\SYSTEM.DLL
C:\PROGRAM FILES (X86)\REFERENCE ASSEMBLIES\MICROSOFT\FRAMEWORK\.NETFRAMEWORK\V4.5\SYSTEM.DRAWING.DLL
C:\PROGRAM FILES (X86)\REFERENCE ASSEMBLIES\MICROSOFT\FRAMEWORK\.NETFRAMEWORK\V4.5\SYSTEM.WINDOWS.FORMS.DLL
C:\PROGRAM FILES (X86)\REFERENCE ASSEMBLIES\MICROSOFT\FRAMEWORK\.NETFRAMEWORK\V4.5\SYSTEM.XML.DLL
\\CS-FILEBOX\STUDENTS\COKAFOR3\DESKTOP\TEAMACONNECT64\CLIFORM\MYFORM.H
^C:\USERS\COKAFOR3\APPDATA\LOCAL\TEMP\.NETFRAMEWORK,VERSION=V4.5.ASSEMBLYATTRIBUTES.CPP
C:\PROGRAM FILES (X86)\MICROSOFT VISUAL STUDIO 12.0\VC\BIN\1033\CLUI.DLL
C:\WINDOWS\GLOBALIZATION\SORTING\SORTDEFAULT.NLS
C:\WINDOWS\SYSTEM32\RSAENH.DLL
C:\WINDOWS\MICROSOFT.NET\FRAMEWORK\V2.0.50727\MSCORWKS.DLL
C:\WINDOWS\MICROSOFT.NET\FRAMEWORK\V4.0.30319\CLR.DLL
C:\PROGRAM FILES (X86)\MICROSOFT VISUAL STUDIO 12.0\VC\BIN\CL.EXE.CONFIG
C:\WINDOWS\SYSTEM32\TZRES.DLL
C:\WINDOWS\MICROSOFT.NET\FRAMEWORK\V4.0.30319\MSCORLIB.DLL
