^\\cs-filebox\students\cokafor3\Desktop\CLIForm\CLIForm.vcxproj
\\cs-filebox\students\cokafor3\Desktop\CLIForm\Debug\CLIForm.MyForm.resources
\\cs-filebox\students\cokafor3\Desktop\CLIForm\Debug\CLIForm.OutputStrings.resources
^\\cs-filebox\students\cokafor3\Desktop\TeamAConnect64\CLIForm\CLIForm.vcxproj
\\cs-filebox\students\cokafor3\Desktop\TeamAConnect64\CLIForm\Debug\CLIForm.MyForm.resources
\\cs-filebox\students\cokafor3\Desktop\TeamAConnect64\CLIForm\Debug\CLIForm.OutputStrings.resources
